222295 878808 525
426243 869600 525
125660 676468 509
436669 897150 525
538027 954379 525
236180 251637 368
286158 646809 509
71089 316667 443
349440 559989 470
427272 889927 525
662869 730484 504
609315 879236 525
502951 698526 509
716930 951998 525
118146 676088 509
386443 620453 470
647502 653153 385
7207 945380 525
16611 31942 308
301940 646062 509
7329 951835 525
409424 949128 525
403282 707820 509
472528 525055 470
133167 365648 443
164431 211104 373
290695 307323 371
90089 780986 509
80023 259820 443
404586 574041 470
143425 240852 443
749853 832875 468
137956 488172 449
404271 755670 509
127816 618416 470
587202 915104 525
786707 959953 525
380704 777516 509
205689 348954 443
85409 498473 449
519353 799218 509
322156 428703 449
206636 820584 509
285193 517041 470
382102 782477 509
680364 727333 504
530729 773374 509
29936 442314 449
356037 779005 509
306102 363783 441
508863 582619 470
746474 987653 525
35606 184413 383
107237 893400 525
793860 883505 525
7027 694365 509
624755 689770 509
506328 694552 509
428982 446758 400
378995 657860 509
517010 963258 525
157034 767253 509
254042 389492 441
206987 482414 449
359915 823992 509
201310 424556 449
114197 264390 443
204088 812121 509
125082 476521 449
798785 886393 525
596564 611583 403
242058 657617 509
507870 655066 509
514994 645518 509
732418 748173 424
303126 734001 509
376583 456943 449
475754 533330 470
265227 734463 509
151841 976150 525
168500 377079 443
249193 317196 407
266571 573375 470
230401 516484 470
254194 995326 525
715092 718257 380
190979 476173 449
40870 192450 383
193008 848706 525
325986 949589 525
862092 923437 476
191243 966472 525
338960 890534 525
241281 487620 449
91994 975133 525
76301 481179 449
266476 293434 407
426542 810359 509
923239 949929 507
68230 253301 443
566291 833846 509
384071 648618 509
168324 326932 443
278269 849430 525
21606 255839 443
490415 683468 509
695275 789351 504
76289 523942 470
224032 722240 509
95683 349648 443
855821 969394 507
723298 780776 468
94393 277596 443
205776 615850 470
21939 94901 351
251939 840532 525
384773 928160 525
27746 713246 509
418822 435336 418
401590 441343 449
349327 955515 525
17330 369909 443
269348 882906 525
157694 706705 509
174896 680488 509
616580 887470 525
653306 712183 504
389363 886669 525
585852 663508 509
412837 747919 509
359867 855998 525
124827 930746 525
123381 461480 449
140334 634316 509
431173 985375 525
41706 379948 443
207089 272431 443
829933 969122 525
60653 855203 525
252942 310948 407
37999 298330 443
451025 760667 509
756793 920065 525
431617 827937 509
953138 956350 414
368243 802775 509
550682 781993 509
78129 996151 525
586562 786672 509
177571 785081 509
45076 401170 443
434141 552028 470
571822 837157 509
721182 981291 525
191723 859694 525
499839 884769 525
734375 957287 525
250634 794787 509
117761 717731 509
56403 639060 509
431277 470258 444
772199 800384 468
85361 868565 525
279579 331502 389
58482 846085 525
506975 809760 509
543648 950126 525
45091 103919 351
459528 743017 509
178039 480781 449
102990 439398 449
950817 969670 414
678120 990323 525
260661 531530 470
678574 823088 504
405171 900397 525
43801 688489 509
85475 624922 470
589344 664923 509
160670 676240 509
594649 937902 525
364939 529377 470
560251 826524 509
133172 693843 509
89249 568063 470
80522 519770 470
471300 629503 509
302511 439617 449
212108 875850 525
116910 315296 443
491693 668103 509
274821 808948 509
68076 524268 470
147875 922755 525
201042 211318 373
668802 712926 504
927880 953970 507
442759 981513 525
25209 678948 509
15578 138048 354
571931 819126 509
293867 312658 384
182701 563357 470
342074 979782 525
693331 844911 525
174444 781320 509
347792 646377 509
339638 921351 525
745035 888763 525
507788 728494 509
2456 153848 375
223154 492054 449
128796 298049 443
604912 833464 509
536800 684006 509
640624 783859 504
278468 296419 389
154623 708073 509
668504 973195 525
580592 973188 525
624218 827505 509
768924 974640 525
761499 787997 468
191 294528 443
21017 758897 509
516190 669176 509
154247 270522 443
314344 924384 525
801519 909116 525
63708 233664 443
326290 362868 441
365503 631522 509
780064 993100 525
779121 904954 525
47754 107938 354
208118 471562 449
920803 931421 476
769160 778865 437
517206 920734 525
33740 710150 509
222380 826731 509
619224 774478 509
675835 678690 385
143460 262603 443
305340 481692 449
158978 196489 370
365494 883635 525
46728 846114 525
232691 263312 407
317743 322402 371
273350 679137 509
368370 507381 449
311775 346334 441
297142 303993 371
339992 848437 525
33656 798182 509
662111 807969 504
408417 647027 509
665374 878044 525
35248 821552 509
129152 133576 344
170038 724065 509
493264 841771 525
147040 920427 525
340507 644796 509
207842 266684 443
202233 637333 509
620848 675701 509
228720 831216 509
140467 836858 509
14607 397271 443
780756 888062 525
223542 998824 525
167747 711251 509
523010 941607 525
33676 150626 375
305878 974690 525
97139 443122 449
205416 372631 443
242785 843492 525
24150 516236 470
360364 424080 449
23389 852424 525
142737 704814 509
25396 633890 509
390953 594325 470
187919 892268 525
251000 271699 407
89580 635834 509
94216 434457 449
645145 809384 504
33907 631835 509
521376 573837 452
420163 854887 525
152149 387868 443
786669 817444 468
693848 815101 504
113617 856883 525
243561 595412 470
193096 904969 525
70557 831637 509
197194 707436 509
211853 692496 509
326180 353810 441
131673 331919 443
116467 665780 509
194399 301102 443
534604 862132 525
126181 955607 525
234036 858592 525
320140 819433 509
795249 835734 468
418634 731863 509
163999 528891 470
282729 367692 441
308179 884698 525
484162 920838 525
129319 213395 383
129163 643969 509
439979 922923 525
538877 643673 509
50984 471518 449
207267 921592 525
188599 445840 449
991098 994996 365
636671 662119 429
275263 895274 525
27061 831488 509
409226 693942 509
163854 261853 443
44428 203167 383
344449 382735 441
674958 699047 442
323184 509396 449
789063 817159 468
348679 778024 509
510155 884214 525
186407 783135 509
181629 807161 509
505452 619299 470
103528 134103 354
395364 765982 509
825083 881853 525
407697 715151 509
47895 71814 340
534788 873157 525
535077 774531 509
524536 563643 452
73108 234459 443
509452 703379 509
509690 975763 525
248350 270087 407
305617 792339 509
664753 672915 442
87089 772590 509
695794 853483 525
444500 639688 509
642109 969112 525
73586 943210 525
700533 767916 504
63895 123504 354
295130 351501 441
254790 896951 525
70951 164135 383
389192 896046 525
729763 855980 525
434050 436142 356
195207 344966 443
95929 782639 509
841683 967639 507
815941 835744 450
297514 783898 509
218698 537520 470
559460 976365 525
59915 340933 443
172210 982564 525
297357 365697 441
349344 604916 470
127654 487139 449
409767 847783 525
314452 900268 525
336757 888469 525
620483 705116 509
198091 826361 509
306257 310256 371
611300 902874 525
137297 789242 509
89031 668561 509
267125 346904 441
122235 364082 443
215795 236536 443
912407 995833 507
808965 872462 525
367740 544576 470
114033 400383 443
43603 252798 443
245481 634985 509
320459 855627 525
161215 170740 352
288640 295012 358
107311 121536 349
333338 577116 470
941184 996066 458
620072 956417 525
148849 397759 443
320072 502725 449
31824 181130 383
282848 851678 525
109902 622347 470
276743 302608 389
762884 866978 525
14593 799001 509
865811 913036 476
930798 983105 507
602607 696437 509
207364 499935 449
479741 622949 470
143457 694087 509
774089 914549 525
406909 431171 449
523620 873830 525
196399 232596 443
152752 865687 525
741123 989041 525
60236 217195 386
406334 723791 509
122606 200151 383
184425 730314 509
451541 701551 509
159407 910048 525
225817 443591 449
328889 963472 525
425365 823436 509
262407 510655 449
327677 771867 509
139099 793218 509
280263 620890 470
897551 960212 507
48274 758412 509
142796 552968 470
62618 621987 470
611359 944992 525
101005 792931 509
446954 459331 387
745194 996550 525
173215 559326 470
191620 664968 509
713338 735075 411
395694 726807 509
525198 526334 408
50352 606433 470
668217 696348 442
98900 927710 525
55693 101898 351
413105 895023 525
198331 809336 509
90049 686178 509
123529 316935 443
623199 754215 509
796734 798338 375
108131 884950 525
107332 362811 443
757029 963582 525
291368 884364 525
542264 905121 525
416912 493666 444
454304 592523 470
357713 945496 525
386081 644756 509
226018 606417 470
228738 376457 443
427767 990673 525
368422 607324 470
226175 479954 449
247537 377034 441
59733 477633 449
386420 536690 470
835529 879634 525
351229 471873 449
693863 924429 525
485321 893946 525
897731 968444 507
5593 634436 509
435866 458181 400
182329 660791 509
346394 859500 525
354848 732442 509
25252 443018 449
299900 856106 525
316693 518883 470
380637 689210 509
63184 366500 443
126940 789292 509
129050 274238 443
149252 354540 443
122240 836908 509
609680 741239 509
654291 849482 525
209429 799643 509
411026 753051 509
144461 229393 386
789182 822037 468
425716 934339 525
123301 253481 443
362244 784311 509
104266 564119 470
731659 933021 525
481584 956380 525
199262 831191 509
529853 875332 525
170736 414196 449
299216 472272 449
666785 873512 525
530112 969426 525
937784 973844 507
583543 901684 525
547958 880420 525
174227 368661 443
507528 586197 470
461706 953653 525
489714 841619 525
832932 858087 525
610830 832921 509
14125 941929 525
660660 901319 525
8177 567132 470
4541 354324 443
512916 946339 525
305454 459300 449
307925 885879 525
35800 417014 449
688789 733397 504
409888 735940 509
781122 908745 525
29061 550982 470
361478 509193 449
148252 658628 509
422055 524155 470
282500 852551 525
30547 67098 340
102715 280522 443
758953 841361 525
504798 516978 470
195301 919668 525
94276 852388 525
82174 670106 509
78639 799211 509
638408 782369 504
489749 702082 509
603747 694053 509
40284 608822 470
49517 941718 525
132986 828804 509
208164 376474 443
405572 573084 470
454824 495923 444
209448 373624 443
694575 937588 525
16716 103488 351
363563 533297 470
367714 746952 509
19417 485509 449
586631 840047 525
459812 802658 509
151673 809559 509
396740 409715 405
141957 879078 525
369573 714181 509
289792 382508 441
461500 681717 509
671881 769449 504
367861 876860 525
396408 738918 509
121960 449687 449
484588 493313 426
187750 298617 443
923970 953411 507
546196 791505 509
423349 486361 444
655719 688029 442
524644 901004 525
547726 860980 525
16249 432644 449
447212 638656 509
355286 550893 470
472438 612407 470
814109 897326 525
433401 752288 509
828945 993989 525
400527 608508 470
577462 924270 525
288321 734837 509
383279 953298 525
143976 608151 470
251847 916007 525
354990 742465 509
252422 266065 407
399968 820976 509
769529 980086 525
548393 951183 525
8585 160497 383
770157 845200 525
121539 650510 509
5615 783996 509
374108 518936 470
133613 203331 383
756378 757145 362
116445 191684 383
290126 851699 525
436105 992341 525
183379 510663 449
378511 471480 449
612575 624999 447
815815 899935 525
290547 379422 441
369997 378440 423
671965 778861 504
819633 940970 525
253599 741321 509
403948 858093 525
303928 667959 509
671691 729694 504
413973 736050 509
728928 807414 468
195545 467189 449
274177 663520 509
24879 530333 470
256511 359504 441
481346 661793 509
429732 541846 470
81391 827386 509
149266 952302 525
59371 308227 443
291457 979054 525
718009 721653 411
194864 460315 449
362825 802462 509
372808 861498 525
56283 673742 509
285957 826654 509
233570 387256 441
749556 967042 525
163990 756270 509
699775 886699 525
473887 859418 525
38838 612449 470
365630 412051 449
68619 242438 443
34379 146053 375
376916 486708 449
80201 309011 443
248829 262966 363
56346 769047 509
112287 137346 349
136007 257089 443
648893 723288 504
214691 554876 470
38753 309572 443
229235 927396 525
320648 600978 470
304213 787398 509
389561 477365 449
70060 198883 383
589181 867748 525
417266 625923 470
195799 458964 449
771979 923141 525
308433 512689 470
324647 436853 449
279014 722519 509
92845 991329 525
926658 990891 507
431088 637053 509
606399 719221 509
27030 492590 449
139195 756416 509
576680 948625 525
132518 924587 525
584548 879541 525
101257 154552 375
348789 471449 449
2711 442613 449
205590 561374 470
79552 900679 525
276320 915838 525
185765 609332 470
216925 422110 449
248262 771774 509
437526 775082 509
83761 406842 443
236282 277606 407
126257 191883 383
763894 798663 468
309260 758511 509
369231 898002 525
544298 669881 509
354739 644673 509
316476 701026 509
99793 971052 525
388176 661345 509
81708 807202 509
212470 359882 443
81377 538131 470
381550 664933 509
622314 640688 509
101057 949549 525
107164 203419 383
95442 738066 509
264124 647609 509
406091 944103 525
228457 681976 509
617126 749345 509
141674 637356 509
436570 504818 444
4546 378932 443
355451 710161 509
228930 390633 443
51084 304362 443
140849 984236 525
820492 947496 525
528987 687532 509
610157 839086 525
209770 266517 443
742581 965965 525
184779 272915 443
262257 624266 470
419600 793391 509
117118 512040 470
458769 750608 509
326823 722400 509
715130 845589 525
17490 152046 375
579019 840446 525
175887 831088 509
519814 858516 525
6707 243197 443
453995 736589 509
690967 986192 525
230270 487860 449
806798 914180 525
10819 655987 509
275828 416164 449
93224 641272 509
88859 412293 449
349246 910554 525
315308 851571 525
70067 459536 449
108449 743168 509
359909 380576 423
350461 368165 410
368752 614131 470
449334 485125 444
87132 304495 443
409825 990986 525
320937 634315 509
159345 663344 509
115155 733069 509
879201 999704 507
4167 814513 509
15960 943421 525
141912 166871 383
57383 783039 509
80328 294176 443
234323 954009 525
150140 364211 443
726111 804846 468
483633 990090 525
143039 588858 470
469232 512290 470
452887 778148 509
196433 576291 470
867083 930147 476
201933 451484 449
79616 225482 386
254388 767543 509
402221 644632 509
613780 959863 525
198500 814620 509
113821 254264 443
584011 920549 525
555480 833648 509
661144 850100 525
92470 896118 525
159577 865574 525
210500 581075 470
578955 944109 525
216975 250930 443
269030 399993 441
312723 895907 525
536695 966230 525
232338 633717 509
310517 519371 470
78623 440312 449
109984 614241 470
116988 567897 470
883746 899906 445
142518 540672 470
288929 429759 449
104115 967123 525
283125 879389 525
561766 583160 421
593111 987718 525
594559 880678 525
861878 947901 507
714530 855866 525
414732 581761 470
53036 772999 509
271018 803724 509
147440 933323 525
134289 267094 443
340264 662216 509
151633 254468 443
305030 521952 470
656857 935041 525
311292 772210 509
316751 862047 525
71501 537017 470
469509 707803 509
367335 664282 509
484837 842179 525
155087 935101 525
207966 664697 509
317732 603510 470
377899 718835 509
824798 994464 525
118052 599018 470
871684 880014 432
494598 641702 509
103567 441906 449
177306 726393 509
268468 889521 525
54494 85205 351
127007 434188 449
653917 963270 525
353828 389336 436
391566 472885 449
816743 971182 525
172803 927183 525
78329 447753 449
17579 636515 509
349027 847723 525
541060 983789 525
801576 999330 525
409372 759665 509
410544 705663 509
788968 926411 525
278334 533651 470
43341 897903 525
543713 754956 509
64964 997815 525
626891 992064 525
269634 702731 509
202938 998395 525
697616 813655 504
78604 994105 525
501462 863995 525
237498 259904 368
132541 406812 443
551019 624258 447
6715 427075 449
128721 710394 509
202947 273147 443
548864 964642 525
183690 369294 443
229586 504279 449
128566 638398 509
412148 841858 525
62122 451120 449
109754 318859 443
495936 975979 525
355094 829138 509
747193 854327 525
19208 141612 354
78853 838667 525
46115 169962 383
39308 961839 525
860863 919525 476
203557 215562 373
31253 474983 449
849666 942019 507
384694 538244 470
225232 688106 509
265271 908642 525
404483 724905 509
179830 750557 509
569159 713729 509
30965 917592 525
634139 646784 416
776680 811663 468
339075 670860 509
294590 904647 525
514420 867940 525
179617 974134 525
18129 482480 449
346426 737501 509
20404 977193 525
86992 350671 443
374364 761676 509
697963 845571 525
232587 552926 470
169628 627273 509
363405 877529 525
295869 388741 441
371118 468540 449
576024 730375 509
235611 429433 449
619065 901187 525
379925 849642 525
783231 958030 525
162418 920491 525
241981 838122 525
854755 938131 476
271108 624852 470
326463 641353 509
357977 698496 509
211138 653464 509
6933 546410 470
180841 895101 525
44725 815762 509
219843 443379 449
504268 558794 470
220063 279349 443
410278 563378 470
299291 976646 525
211398 545561 470
11612 59981 340
267217 888477 525
251044 649014 509
168056 721773 509
330087 408317 441
52159 476342 449
261355 712877 509
441704 523574 470
163080 722000 509
201434 256773 443
75740 730654 509
569903 942308 525
236738 773725 509
255242 956472 525
574560 667746 509
178941 413567 449
627720 825111 504
841977 915358 476
445130 559723 470
225600 968353 525
2602 494445 449
126875 357778 443
422362 958380 525
39853 519547 470
413226 546775 470
299901 548440 470
237864 676023 509
708366 812707 468
552406 564439 421
297680 687639 509
5847 265805 443
292511 995091 525
227789 895451 525
17314 406655 443
504446 581628 470
531806 940994 525
425115 547550 470
309 794424 509
310341 799972 509
304561 745625 509
289315 478515 449
59238 453240 449
283806 361534 441
531332 903957 525
125594 162794 383
817040 981490 525
80055 812932 509
173658 181788 365
335480 914356 525
175720 812109 509
267843 616164 470
353185 357052 379
171189 367569 443
157280 646636 509
310469 509879 449
819635 981914 525
455273 579768 470
25480 503311 449
171367 980789 525
9808 440605 449
704286 921345 525
783379 852674 525
180332 829530 509
323627 411487 449
835666 861788 525
73970 416508 449
626599 837893 525
234737 520199 470
531520 782999 509
37307 350574 443
331977 546655 470
386207 971226 525
30834 431801 449
31571 633839 509
